id,jumlah,tanggal_pembayaran,foto_resi,status,anggota_id,jenis_investasi_id,created_by,updated_by,created_at,updated_at
1,5000005,2017-12-20,images/investasi/image-2.png,1,1,1,1,1,2017-12-20 03:04:00,2017-12-20 03:04:00
2,2000022,2017-12-20,images/investasi/image-2.png,1,2,1,1,1,2017-12-20 03:04:00,2017-12-20 03:04:00
3,1000153,2017-12-20,images/investasi/image-2.png,1,3,1,1,1,2017-12-20 03:04:00,2017-12-20 03:04:00
4,10000462,2017-12-20,images/investasi/image-2.png,1,4,1,1,1,2017-12-20 03:04:00,2017-12-20 03:04:00
5,5000009,2017-12-20,images/investasi/image-2.png,1,5,1,1,1,2017-12-20 03:04:00,2017-12-20 03:04:00
6,1000000,2017-12-20,images/investasi/image-2.png,1,6,1,1,1,2017-12-20 03:04:00,2017-12-20 03:04:00
7,2000265,2017-12-20,images/investasi/image-2.png,1,7,1,1,1,2017-12-20 03:04:00,2017-12-20 03:04:00
8,5000004,2017-12-20,images/investasi/image-2.png,1,8,1,1,1,2017-12-20 03:04:00,2017-12-20 03:04:00
9,1000223,2017-12-20,images/investasi/image-2.png,1,9,1,1,1,2017-12-20 03:04:00,2017-12-20 03:04:00
10,10000000,2017-12-20,images/investasi/image-2.png,1,10,1,1,1,2017-12-20 03:04:00,2017-12-20 03:04:00
11,4000520,2017-12-20,images/investasi/image-2.png,1,11,1,1,1,2017-12-20 03:04:00,2017-12-20 03:04:00
12,15000058,2017-12-20,images/investasi/image-2.png,1,12,1,1,1,2017-12-20 03:04:00,2017-12-20 03:04:00
13,11000012,2017-12-20,images/investasi/image-2.png,1,13,1,1,1,2017-12-20 03:04:00,2017-12-20 03:04:00
14,500079,2017-12-20,images/investasi/image-2.png,1,14,1,1,1,2017-12-20 03:04:00,2017-12-20 03:04:00
15,1000023,2017-12-20,images/investasi/image-2.png,1,15,1,1,1,2017-12-20 03:04:00,2017-12-20 03:04:00
16,2000239,2017-12-20,images/investasi/image-2.png,1,16,1,1,1,2017-12-20 03:04:00,2017-12-20 03:04:00
17,2500050,2017-12-20,images/investasi/image-2.png,1,17,1,1,1,2017-12-20 03:04:00,2017-12-20 03:04:00
18,2000069,2017-12-20,images/investasi/image-2.png,1,18,1,1,1,2017-12-20 03:04:00,2017-12-20 03:04:00
19,1500283,2017-12-20,images/investasi/image-2.png,1,19,1,1,1,2017-12-20 03:04:00,2017-12-20 03:04:00
20,20000000,2017-12-20,images/investasi/image-2.png,1,20,1,1,1,2017-12-20 03:04:00,2017-12-20 03:04:00
21,1000247,2017-12-20,images/investasi/image-2.png,1,21,1,1,1,2017-12-20 03:04:00,2017-12-20 03:04:00
22,1000238,2017-12-20,images/investasi/image-2.png,1,22,1,1,1,2017-12-20 03:04:00,2017-12-20 03:04:00
23,500185,2017-12-20,images/investasi/image-2.png,1,23,1,1,1,2017-12-20 03:04:00,2017-12-20 03:04:00
24,500043,2017-12-20,images/investasi/image-2.png,1,24,1,1,1,2017-12-20 03:04:00,2017-12-20 03:04:00
25,20000190,2017-12-20,images/investasi/image-2.png,1,25,1,1,1,2017-12-20 03:04:00,2017-12-20 03:04:00
26,1000156,2017-12-20,images/investasi/image-2.png,1,26,1,1,1,2017-12-20 03:04:00,2017-12-20 03:04:00
27,1000000,2017-12-20,images/investasi/image-2.png,1,27,1,1,1,2017-12-20 03:04:00,2017-12-20 03:04:00
28,1000250,2017-12-20,images/investasi/image-2.png,1,28,1,1,1,2017-12-20 03:04:00,2017-12-20 03:04:00
29,1000366,2017-12-20,images/investasi/image-2.png,1,29,1,1,1,2017-12-20 03:04:00,2017-12-20 03:04:00
30,1000287,2017-12-20,images/investasi/image-2.png,1,30,1,1,1,2017-12-20 03:04:00,2017-12-20 03:04:00
31,1000212,2017-12-20,images/investasi/image-2.png,1,31,1,1,1,2017-12-20 03:04:00,2017-12-20 03:04:00
32,2000066,2017-12-20,images/investasi/image-2.png,1,32,1,1,1,2017-12-20 03:04:00,2017-12-20 03:04:00
33,5000168,2017-12-20,images/investasi/image-2.png,1,33,1,1,1,2017-12-20 03:04:00,2017-12-20 03:04:00
34,500000,2017-12-20,images/investasi/image-2.png,1,34,1,1,1,2017-12-20 03:04:00,2017-12-20 03:04:00
35,1000291,2017-12-20,images/investasi/image-2.png,1,35,1,1,1,2017-12-20 03:04:00,2017-12-20 03:04:00
36,5000000,2017-12-20,images/investasi/image-2.png,1,36,1,1,1,2017-12-20 03:04:00,2017-12-20 03:04:00
37,2000267,2017-12-20,images/investasi/image-2.png,1,37,1,1,1,2017-12-20 03:04:00,2017-12-20 03:04:00
38,5000007,2017-12-20,images/investasi/image-2.png,1,38,1,1,1,2017-12-20 03:04:00,2017-12-20 03:04:00
39,5000000,2017-12-20,images/investasi/image-2.png,1,39,1,1,1,2017-12-20 03:04:00,2017-12-20 03:04:00
40,1000000,2017-12-20,images/investasi/image-2.png,1,40,1,1,1,2017-12-20 03:04:00,2017-12-20 03:04:00
41,1000245,2017-12-20,images/investasi/image-2.png,1,41,1,1,1,2017-12-20 03:04:00,2017-12-20 03:04:00
42,2000070,2017-12-20,images/investasi/image-2.png,1,42,1,1,1,2017-12-20 03:04:00,2017-12-20 03:04:00
43,2000000,2017-12-20,images/investasi/image-2.png,1,43,1,1,1,2017-12-20 03:04:00,2017-12-20 03:04:00
44,11000000,2017-12-20,images/investasi/image-2.png,1,44,1,1,1,2017-12-20 03:04:00,2017-12-20 03:04:00
45,2000000,2017-12-20,images/investasi/image-2.png,1,45,1,1,1,2017-12-20 03:04:00,2017-12-20 03:04:00
46,1000056,2017-12-20,images/investasi/image-2.png,1,46,1,1,1,2017-12-20 03:04:00,2017-12-20 03:04:00
47,1000000,2017-12-20,images/investasi/image-2.png,1,47,1,1,1,2017-12-20 03:04:00,2017-12-20 03:04:00
48,14000418,2017-12-20,images/investasi/image-2.png,1,48,1,1,1,2017-12-20 03:04:00,2017-12-20 03:04:00
49,5000392,2017-12-20,images/investasi/image-2.png,1,49,1,1,1,2017-12-20 03:04:00,2017-12-20 03:04:00
50,20000412,2017-12-20,images/investasi/image-2.png,1,50,1,1,1,2017-12-20 03:04:00,2017-12-20 03:04:00
51,20000269,2017-12-20,images/investasi/image-2.png,1,51,1,1,1,2017-12-20 03:04:00,2017-12-20 03:04:00
52,500165,2017-12-20,images/investasi/image-2.png,1,52,1,1,1,2017-12-20 03:04:00,2017-12-20 03:04:00
53,1000000,2017-12-20,images/investasi/image-2.png,1,53,1,1,1,2017-12-20 03:04:00,2017-12-20 03:04:00
54,500296,2017-12-20,images/investasi/image-2.png,1,54,1,1,1,2017-12-20 03:04:00,2017-12-20 03:04:00
55,10000111,2017-12-20,images/investasi/image-2.png,1,55,1,1,1,2017-12-20 03:04:00,2017-12-20 03:04:00
56,5000077,2017-12-20,images/investasi/image-2.png,1,56,1,1,1,2017-12-20 03:04:00,2017-12-20 03:04:00
57,1000000,2017-12-20,images/investasi/image-2.png,1,57,1,1,1,2017-12-20 03:04:00,2017-12-20 03:04:00
58,2000237,2017-12-20,images/investasi/image-2.png,1,58,1,1,1,2017-12-20 03:04:00,2017-12-20 03:04:00
59,1000081,2017-12-20,images/investasi/image-2.png,1,59,1,1,1,2017-12-20 03:04:00,2017-12-20 03:04:00
60,3500498,2017-12-20,images/investasi/image-2.png,1,60,1,1,1,2017-12-20 03:04:00,2017-12-20 03:04:00
61,1000259,2017-12-20,images/investasi/image-2.png,1,61,1,1,1,2017-12-20 03:04:00,2017-12-20 03:04:00
62,20000365,2017-12-20,images/investasi/image-2.png,1,62,1,1,1,2017-12-20 03:04:00,2017-12-20 03:04:00
63,5000087,2017-12-20,images/investasi/image-2.png,1,63,1,1,1,2017-12-20 03:04:00,2017-12-20 03:04:00
64,2000304,2017-12-20,images/investasi/image-2.png,1,64,1,1,1,2017-12-20 03:04:00,2017-12-20 03:04:00
65,20000600,2017-12-20,images/investasi/image-2.png,1,65,1,1,1,2017-12-20 03:04:00,2017-12-20 03:04:00
66,500000,2017-12-20,images/investasi/image-2.png,1,66,1,1,1,2017-12-20 03:04:00,2017-12-20 03:04:00
67,2000220,2017-12-20,images/investasi/image-2.png,1,67,1,1,1,2017-12-20 03:04:00,2017-12-20 03:04:00
68,5000000,2017-12-20,images/investasi/image-2.png,1,68,1,1,1,2017-12-20 03:04:00,2017-12-20 03:04:00
69,500000,2017-12-20,images/investasi/image-2.png,1,69,1,1,1,2017-12-20 03:04:00,2017-12-20 03:04:00
70,500305,2017-12-20,images/investasi/image-2.png,1,70,1,1,1,2017-12-20 03:04:00,2017-12-20 03:04:00
71,2000160,2017-12-20,images/investasi/image-2.png,1,71,1,1,1,2017-12-20 03:04:00,2017-12-20 03:04:00
72,2500000,2017-12-20,images/investasi/image-2.png,1,72,1,1,1,2017-12-20 03:04:00,2017-12-20 03:04:00
73,1000308,2017-12-20,images/investasi/image-2.png,1,73,1,1,1,2017-12-20 03:04:00,2017-12-20 03:04:00
74,1500000,2017-12-20,images/investasi/image-2.png,1,74,1,1,1,2017-12-20 03:04:00,2017-12-20 03:04:00
75,2000030,2017-12-20,images/investasi/image-2.png,1,75,1,1,1,2017-12-20 03:04:00,2017-12-20 03:04:00
76,2000031,2017-12-20,images/investasi/image-2.png,1,76,1,1,1,2017-12-20 03:04:00,2017-12-20 03:04:00
77,2000099,2017-12-20,images/investasi/image-2.png,1,77,1,1,1,2017-12-20 03:04:00,2017-12-20 03:04:00
78,1000100,2017-12-20,images/investasi/image-2.png,1,78,1,1,1,2017-12-20 03:04:00,2017-12-20 03:04:00
79,2000248,2017-12-20,images/investasi/image-2.png,1,79,1,1,1,2017-12-20 03:04:00,2017-12-20 03:04:00
80,2000440,2017-12-20,images/investasi/image-2.png,1,80,1,1,1,2017-12-20 03:04:00,2017-12-20 03:04:00
81,500307,2017-12-20,images/investasi/image-2.png,1,81,1,1,1,2017-12-20 03:04:00,2017-12-20 03:04:00
82,500184,2017-12-20,images/investasi/image-2.png,1,82,1,1,1,2017-12-20 03:04:00,2017-12-20 03:04:00
83,1000288,2017-12-20,images/investasi/image-2.png,1,83,1,1,1,2017-12-20 03:04:00,2017-12-20 03:04:00
84,1000057,2017-12-20,images/investasi/image-2.png,1,84,1,1,1,2017-12-20 03:04:00,2017-12-20 03:04:00
85,20000084,2017-12-20,images/investasi/image-2.png,1,85,1,1,1,2017-12-20 03:04:00,2017-12-20 03:04:00
86,10000133,2017-12-20,images/investasi/image-2.png,1,86,1,1,1,2017-12-20 03:04:00,2017-12-20 03:04:00
87,1000309,2017-12-20,images/investasi/image-2.png,1,87,1,1,1,2017-12-20 03:04:00,2017-12-20 03:04:00
88,1066075,2017-12-20,images/investasi/image-2.png,1,88,1,1,1,2017-12-20 03:04:00,2017-12-20 03:04:00
89,20000314,2017-12-20,images/investasi/image-2.png,1,89,1,1,1,2017-12-20 03:04:00,2017-12-20 03:04:00
90,20000315,2017-12-20,images/investasi/image-2.png,1,90,1,1,1,2017-12-20 03:04:00,2017-12-20 03:04:00
91,2000000,2017-12-20,images/investasi/image-2.png,1,91,1,1,1,2017-12-20 03:04:00,2017-12-20 03:04:00
92,7000318,2017-12-20,images/investasi/image-2.png,1,92,1,1,1,2017-12-20 03:04:00,2017-12-20 03:04:00
93,1000001,2017-12-20,images/investasi/image-2.png,1,93,1,1,1,2017-12-20 03:04:00,2017-12-20 03:04:00
94,20000094,2017-12-20,images/investasi/image-2.png,1,94,1,1,1,2017-12-20 03:04:00,2017-12-20 03:04:00
95,1000321,2017-12-20,images/investasi/image-2.png,1,95,1,1,1,2017-12-20 03:04:00,2017-12-20 03:04:00
96,1000322,2017-12-20,images/investasi/image-2.png,1,96,1,1,1,2017-12-20 03:04:00,2017-12-20 03:04:00
97,1000329,2017-12-20,images/investasi/image-2.png,1,97,1,1,1,2017-12-20 03:04:00,2017-12-20 03:04:00
98,500044,2017-12-20,images/investasi/image-2.png,1,98,1,1,1,2017-12-20 03:04:00,2017-12-20 03:04:00
99,1000331,2017-12-20,images/investasi/image-2.png,1,99,1,1,1,2017-12-20 03:04:00,2017-12-20 03:04:00
100,10000328,2017-12-20,images/investasi/image-2.png,1,100,1,1,1,2017-12-20 03:04:00,2017-12-20 03:04:00
101,500000,2017-12-20,images/investasi/image-2.png,1,101,1,1,1,2017-12-20 03:04:00,2017-12-20 03:04:00
102,1000240,2017-12-20,images/investasi/image-2.png,1,102,1,1,1,2017-12-20 03:04:00,2017-12-20 03:04:00
103,2500717,2017-12-20,images/investasi/image-2.png,1,103,1,1,1,2017-12-20 03:04:00,2017-12-20 03:04:00
104,500326,2017-12-20,images/investasi/image-2.png,1,104,1,1,1,2017-12-20 03:04:00,2017-12-20 03:04:00
105,500000,2017-12-20,images/investasi/image-2.png,1,105,1,1,1,2017-12-20 03:04:00,2017-12-20 03:04:00
106,500000,2017-12-20,images/investasi/image-2.png,1,106,1,1,1,2017-12-20 03:04:00,2017-12-20 03:04:00
107,500000,2017-12-20,images/investasi/image-2.png,1,107,1,1,1,2017-12-20 03:04:00,2017-12-20 03:04:00
108,500000,2017-12-20,images/investasi/image-2.png,1,108,1,1,1,2017-12-20 03:04:00,2017-12-20 03:04:00
109,500000,2017-12-20,images/investasi/image-2.png,1,109,1,1,1,2017-12-20 03:04:00,2017-12-20 03:04:00
110,2000000,2017-12-20,images/investasi/image-2.png,1,110,1,1,1,2017-12-20 03:04:00,2017-12-20 03:04:00
111,10000000,2017-12-20,images/investasi/image-2.png,1,111,1,1,1,2017-12-20 03:04:00,2017-12-20 03:04:00
112,500000,2017-12-20,images/investasi/image-2.png,1,112,1,1,1,2017-12-20 03:04:00,2017-12-20 03:04:00
113,1500000,2017-12-20,images/investasi/image-2.png,1,113,1,1,1,2017-12-20 03:04:00,2017-12-20 03:04:00
114,5000339,2017-12-20,images/investasi/image-2.png,1,114,1,1,1,2017-12-20 03:04:00,2017-12-20 03:04:00
115,500188,2017-12-20,images/investasi/image-2.png,1,115,1,1,1,2017-12-20 03:04:00,2017-12-20 03:04:00
116,500343,2017-12-20,images/investasi/image-2.png,1,116,1,1,1,2017-12-20 03:04:00,2017-12-20 03:04:00
117,500121,2017-12-20,images/investasi/image-2.png,1,117,1,1,1,2017-12-20 03:04:00,2017-12-20 03:04:00
118,500346,2017-12-20,images/investasi/image-2.png,1,118,1,1,1,2017-12-20 03:04:00,2017-12-20 03:04:00
119,5000166,2017-12-20,images/investasi/image-2.png,1,119,1,1,1,2017-12-20 03:04:00,2017-12-20 03:04:00
120,500349,2017-12-20,images/investasi/image-2.png,1,120,1,1,1,2017-12-20 03:04:00,2017-12-20 03:04:00
121,1000295,2017-12-20,images/investasi/image-2.png,1,121,1,1,1,2017-12-20 03:04:00,2017-12-20 03:04:00
122,1000332,2017-12-20,images/investasi/image-2.png,1,122,1,1,1,2017-12-20 03:04:00,2017-12-20 03:04:00
123,1000170,2017-12-20,images/investasi/image-2.png,1,123,1,1,1,2017-12-20 03:04:00,2017-12-20 03:04:00
124,3000337,2017-12-20,images/investasi/image-2.png,1,124,1,1,1,2017-12-20 03:04:00,2017-12-20 03:04:00
125,5000347,2017-12-20,images/investasi/image-2.png,1,125,1,1,1,2017-12-20 03:04:00,2017-12-20 03:04:00
126,1000179,2017-12-20,images/investasi/image-2.png,1,126,1,1,1,2017-12-20 03:04:00,2017-12-20 03:04:00
127,10000320,2017-12-20,images/investasi/image-2.png,1,127,1,1,1,2017-12-20 03:04:00,2017-12-20 03:04:00
128,1000218,2017-12-20,images/investasi/image-2.png,1,128,1,1,1,2017-12-20 03:04:00,2017-12-20 03:04:00
129,5000348,2017-12-20,images/investasi/image-2.png,1,129,1,1,1,2017-12-20 03:04:00,2017-12-20 03:04:00
130,1000208,2017-12-20,images/investasi/image-2.png,1,130,1,1,1,2017-12-20 03:04:00,2017-12-20 03:04:00
131,1500352,2017-12-20,images/investasi/image-2.png,1,131,1,1,1,2017-12-20 03:04:00,2017-12-20 03:04:00
132,10000152,2017-12-20,images/investasi/image-2.png,1,132,1,1,1,2017-12-20 03:04:00,2017-12-20 03:04:00
133,2000098,2017-12-20,images/investasi/image-2.png,1,133,1,1,1,2017-12-20 03:04:00,2017-12-20 03:04:00
134,20000016,2017-12-20,images/investasi/image-2.png,1,134,1,1,1,2017-12-20 03:04:00,2017-12-20 03:04:00
135,7000190,2017-12-20,images/investasi/image-2.png,1,135,1,1,1,2017-12-20 03:04:00,2017-12-20 03:04:00
136,500333,2017-12-20,images/investasi/image-2.png,1,136,1,1,1,2017-12-20 03:04:00,2017-12-20 03:04:00
137,500354,2017-12-20,images/investasi/image-2.png,1,137,1,1,1,2017-12-20 03:04:00,2017-12-20 03:04:00
138,5000000,2017-12-20,images/investasi/image-2.png,1,138,1,1,1,2017-12-20 03:04:00,2017-12-20 03:04:00
139,1000000,2017-12-20,images/investasi/image-2.png,1,139,1,1,1,2017-12-20 03:04:00,2017-12-20 03:04:00
140,1000000,2017-12-20,images/investasi/image-2.png,1,140,1,1,1,2017-12-20 03:04:00,2017-12-20 03:04:00
141,1000091,2017-12-20,images/investasi/image-2.png,1,141,1,1,1,2017-12-20 03:04:00,2017-12-20 03:04:00
142,1000000,2017-12-20,images/investasi/image-2.png,1,142,1,1,1,2017-12-20 03:04:00,2017-12-20 03:04:00
143,500363,2017-12-20,images/investasi/image-2.png,1,143,1,1,1,2017-12-20 03:04:00,2017-12-20 03:04:00
144,1000330,2017-12-20,images/investasi/image-2.png,1,144,1,1,1,2017-12-20 03:04:00,2017-12-20 03:04:00
145,1500361,2017-12-20,images/investasi/image-2.png,1,145,1,1,1,2017-12-20 03:04:00,2017-12-20 03:04:00
146,1000350,2017-12-20,images/investasi/image-2.png,1,146,1,1,1,2017-12-20 03:04:00,2017-12-20 03:04:00
147,1500360,2017-12-20,images/investasi/image-2.png,1,147,1,1,1,2017-12-20 03:04:00,2017-12-20 03:04:00
148,5000292,2017-12-20,images/investasi/image-2.png,1,148,1,1,1,2017-12-20 03:04:00,2017-12-20 03:04:00
149,1000365,2017-12-20,images/investasi/image-2.png,1,149,1,1,1,2017-12-20 03:04:00,2017-12-20 03:04:00
150,2000344,2017-12-20,images/investasi/image-2.png,1,150,1,1,1,2017-12-20 03:04:00,2017-12-20 03:04:00
151,1000358,2017-12-20,images/investasi/image-2.png,1,151,1,1,1,2017-12-20 03:04:00,2017-12-20 03:04:00
152,1000164,2017-12-20,images/investasi/image-2.png,1,152,1,1,1,2017-12-20 03:04:00,2017-12-20 03:04:00
153,1000000,2017-12-20,images/investasi/image-2.png,1,153,1,1,1,2017-12-20 03:04:00,2017-12-20 03:04:00
154,1000372,2017-12-20,images/investasi/image-2.png,1,154,1,1,1,2017-12-20 03:04:00,2017-12-20 03:04:00
155,2000251,2017-12-20,images/investasi/image-2.png,1,155,1,1,1,2017-12-20 03:04:00,2017-12-20 03:04:00
156,1000070,2017-12-20,images/investasi/image-2.png,1,156,1,1,1,2017-12-20 03:04:00,2017-12-20 03:04:00
157,1000078,2017-12-20,images/investasi/image-2.png,1,157,1,1,1,2017-12-20 03:04:00,2017-12-20 03:04:00
158,1000000,2017-12-20,images/investasi/image-2.png,1,158,1,1,1,2017-12-20 03:04:00,2017-12-20 03:04:00
159,1500371,2017-12-20,images/investasi/image-2.png,1,159,1,1,1,2017-12-20 03:04:00,2017-12-20 03:04:00
160,1000380,2017-12-20,images/investasi/image-2.png,1,160,1,1,1,2017-12-20 03:04:00,2017-12-20 03:04:00
161,500000,2017-12-20,images/investasi/image-2.png,1,161,1,1,1,2017-12-20 03:04:00,2017-12-20 03:04:00
162,1000154,2017-12-20,images/investasi/image-2.png,1,162,1,1,1,2017-12-20 03:04:00,2017-12-20 03:04:00
163,5000313,2017-12-20,images/investasi/image-2.png,1,163,1,1,1,2017-12-20 03:04:00,2017-12-20 03:04:00
164,10000369,2017-12-20,images/investasi/image-2.png,1,164,1,1,1,2017-12-20 03:04:00,2017-12-20 03:04:00
165,5000366,2017-12-20,images/investasi/image-2.png,1,165,1,1,1,2017-12-20 03:04:00,2017-12-20 03:04:00
166,500323,2017-12-20,images/investasi/image-2.png,1,166,1,1,1,2017-12-20 03:04:00,2017-12-20 03:04:00
167,1000385,2017-12-20,images/investasi/image-2.png,1,167,1,1,1,2017-12-20 03:04:00,2017-12-20 03:04:00
168,1000375,2017-12-20,images/investasi/image-2.png,1,168,1,1,1,2017-12-20 03:04:00,2017-12-20 03:04:00
169,1000000,2017-12-20,images/investasi/image-2.png,1,169,1,1,1,2017-12-20 03:04:00,2017-12-20 03:04:00
170,2000000,2017-12-20,images/investasi/image-2.png,1,170,1,1,1,2017-12-20 03:04:00,2017-12-20 03:04:00
171,2500391,2017-12-20,images/investasi/image-2.png,1,171,1,1,1,2017-12-20 03:04:00,2017-12-20 03:04:00
172,5500258,2017-12-20,images/investasi/image-2.png,1,172,1,1,1,2017-12-20 03:04:00,2017-12-20 03:04:00
173,20000000,2017-12-20,images/investasi/image-2.png,1,173,1,1,1,2017-12-20 03:04:00,2017-12-20 03:04:00
174,1000000,2017-12-20,images/investasi/image-2.png,1,174,1,1,1,2017-12-20 03:04:00,2017-12-20 03:04:00
175,500326,2017-12-20,images/investasi/image-2.png,1,175,1,1,1,2017-12-20 03:04:00,2017-12-20 03:04:00
176,5000327,2017-12-20,images/investasi/image-2.png,1,176,1,1,1,2017-12-20 03:04:00,2017-12-20 03:04:00
177,1000000,2017-12-20,images/investasi/image-2.png,1,177,1,1,1,2017-12-20 03:04:00,2017-12-20 03:04:00
178,500000,2017-12-20,images/investasi/image-2.png,1,178,1,1,1,2017-12-20 03:04:00,2017-12-20 03:04:00
179,1000268,2017-12-20,images/investasi/image-2.png,1,179,1,1,1,2017-12-20 03:04:00,2017-12-20 03:04:00
180,500389,2017-12-20,images/investasi/image-2.png,1,180,1,1,1,2017-12-20 03:04:00,2017-12-20 03:04:00
181,5000396,2017-12-20,images/investasi/image-2.png,1,181,1,1,1,2017-12-20 03:04:00,2017-12-20 03:04:00
182,20000113,2017-12-20,images/investasi/image-2.png,1,182,1,1,1,2017-12-20 03:04:00,2017-12-20 03:04:00
183,5000395,2017-12-20,images/investasi/image-2.png,1,183,1,1,1,2017-12-20 03:04:00,2017-12-20 03:04:00
184,5000161,2017-12-20,images/investasi/image-2.png,1,184,1,1,1,2017-12-20 03:04:00,2017-12-20 03:04:00
185,500373,2017-12-20,images/investasi/image-2.png,1,185,1,1,1,2017-12-20 03:04:00,2017-12-20 03:04:00
186,500374,2017-12-20,images/investasi/image-2.png,1,186,1,1,1,2017-12-20 03:04:00,2017-12-20 03:04:00
187,2000370,2017-12-20,images/investasi/image-2.png,1,187,1,1,1,2017-12-20 03:04:00,2017-12-20 03:04:00
188,1000042,2017-12-20,images/investasi/image-2.png,1,188,1,1,1,2017-12-20 03:04:00,2017-12-20 03:04:00
189,1000104,2017-12-20,images/investasi/image-2.png,1,189,1,1,1,2017-12-20 03:04:00,2017-12-20 03:04:00
190,5000000,2017-12-20,images/investasi/image-2.png,1,190,1,1,1,2017-12-20 03:04:00,2017-12-20 03:04:00
191,1000393,2017-12-20,images/investasi/image-2.png,1,191,1,1,1,2017-12-20 03:04:00,2017-12-20 03:04:00
192,2000011,2017-12-20,images/investasi/image-2.png,1,192,1,1,1,2017-12-20 03:04:00,2017-12-20 03:04:00
193,500230,2017-12-20,images/investasi/image-2.png,1,193,1,1,1,2017-12-20 03:04:00,2017-12-20 03:04:00
194,5000000,2017-12-20,images/investasi/image-2.png,1,194,1,1,1,2017-12-20 03:04:00,2017-12-20 03:04:00
195,4000000,2017-12-20,images/investasi/image-2.png,1,195,1,1,1,2017-12-20 03:04:00,2017-12-20 03:04:00
196,1000254,2017-12-20,images/investasi/image-2.png,1,196,1,1,1,2017-12-20 03:04:00,2017-12-20 03:04:00
197,1000402,2017-12-20,images/investasi/image-2.png,1,197,1,1,1,2017-12-20 03:04:00,2017-12-20 03:04:00
198,500000,2017-12-20,images/investasi/image-2.png,1,198,1,1,1,2017-12-20 03:04:00,2017-12-20 03:04:00
199,500321,2017-12-20,images/investasi/image-2.png,1,199,1,1,1,2017-12-20 03:04:00,2017-12-20 03:04:00
200,1000000,2017-12-20,images/investasi/image-2.png,1,200,1,1,1,2017-12-20 03:04:00,2017-12-20 03:04:00
201,1000406,2017-12-20,images/investasi/image-2.png,1,201,1,1,1,2017-12-20 03:04:00,2017-12-20 03:04:00
202,500000,2017-12-20,images/investasi/image-2.png,1,202,1,1,1,2017-12-20 03:04:00,2017-12-20 03:04:00
203,3000405,2017-12-20,images/investasi/image-2.png,1,203,1,1,1,2017-12-20 03:04:00,2017-12-20 03:04:00
204,1500408,2017-12-20,images/investasi/image-2.png,1,204,1,1,1,2017-12-20 03:04:00,2017-12-20 03:04:00
205,500411,2017-12-20,images/investasi/image-2.png,1,205,1,1,1,2017-12-20 03:04:00,2017-12-20 03:04:00
206,1000409,2017-12-20,images/investasi/image-2.png,1,206,1,1,1,2017-12-20 03:04:00,2017-12-20 03:04:00
207,1000000,2017-12-20,images/investasi/image-2.png,1,207,1,1,1,2017-12-20 03:04:00,2017-12-20 03:04:00
208,15000414,2017-12-20,images/investasi/image-2.png,1,208,1,1,1,2017-12-20 03:04:00,2017-12-20 03:04:00
209,2000195,2017-12-20,images/investasi/image-2.png,1,209,1,1,1,2017-12-20 03:04:00,2017-12-20 03:04:00
210,1000073,2017-12-20,images/investasi/image-2.png,1,210,1,1,1,2017-12-20 03:04:00,2017-12-20 03:04:00
211,2000415,2017-12-20,images/investasi/image-2.png,1,211,1,1,1,2017-12-20 03:04:00,2017-12-20 03:04:00
212,2000416,2017-12-20,images/investasi/image-2.png,1,212,1,1,1,2017-12-20 03:04:00,2017-12-20 03:04:00
213,1000123,2017-12-20,images/investasi/image-2.png,1,213,1,1,1,2017-12-20 03:04:00,2017-12-20 03:04:00
214,10000026,2017-12-20,images/investasi/image-2.png,1,214,1,1,1,2017-12-20 03:04:00,2017-12-20 03:04:00
215,500417,2017-12-20,images/investasi/image-2.png,1,215,1,1,1,2017-12-20 03:04:00,2017-12-20 03:04:00
216,500418,2017-12-20,images/investasi/image-2.png,1,216,1,1,1,2017-12-20 03:04:00,2017-12-20 03:04:00
217,500419,2017-12-20,images/investasi/image-2.png,1,217,1,1,1,2017-12-20 03:04:00,2017-12-20 03:04:00
218,500420,2017-12-20,images/investasi/image-2.png,1,218,1,1,1,2017-12-20 03:04:00,2017-12-20 03:04:00
219,500421,2017-12-20,images/investasi/image-2.png,1,219,1,1,1,2017-12-20 03:04:00,2017-12-20 03:04:00
220,500000,2017-12-20,images/investasi/image-2.png,1,220,1,1,1,2017-12-20 03:04:00,2017-12-20 03:04:00
221,10000850,2017-12-20,images/investasi/image-2.png,1,221,1,1,1,2017-12-20 03:04:00,2017-12-20 03:04:00
222,1000000,2017-12-20,images/investasi/image-2.png,1,222,1,1,1,2017-12-20 03:04:00,2017-12-20 03:04:00
223,1000000,2017-12-20,images/investasi/image-2.png,1,223,1,1,1,2017-12-20 03:04:00,2017-12-20 03:04:00
224,1000422,2017-12-20,images/investasi/image-2.png,1,224,1,1,1,2017-12-20 03:04:00,2017-12-20 03:04:00
225,1000000,2017-12-20,images/investasi/image-2.png,1,225,1,1,1,2017-12-20 03:04:00,2017-12-20 03:04:00
226,1500229,2017-12-20,images/investasi/image-2.png,1,226,1,1,1,2017-12-20 03:04:00,2017-12-20 03:04:00
227,1000272,2017-12-20,images/investasi/image-2.png,1,227,1,1,1,2017-12-20 03:04:00,2017-12-20 03:04:00
228,2000397,2017-12-20,images/investasi/image-2.png,1,228,1,1,1,2017-12-20 03:04:00,2017-12-20 03:04:00
229,500428,2017-12-20,images/investasi/image-2.png,1,229,1,1,1,2017-12-20 03:04:00,2017-12-20 03:04:00
230,500429,2017-12-20,images/investasi/image-2.png,1,230,1,1,1,2017-12-20 03:04:00,2017-12-20 03:04:00
231,1000390,2017-12-20,images/investasi/image-2.png,1,231,1,1,1,2017-12-20 03:04:00,2017-12-20 03:04:00
232,500052,2017-12-20,images/investasi/image-2.png,1,232,1,1,1,2017-12-20 03:04:00,2017-12-20 03:04:00
233,10000261,2017-12-20,images/investasi/image-2.png,1,233,1,1,1,2017-12-20 03:04:00,2017-12-20 03:04:00
234,10000225,2017-12-20,images/investasi/image-2.png,1,234,1,1,1,2017-12-20 03:04:00,2017-12-20 03:04:00
235,500431,2017-12-20,images/investasi/image-2.png,1,235,1,1,1,2017-12-20 03:04:00,2017-12-20 03:04:00
236,500000,2017-12-20,images/investasi/image-2.png,1,237,1,1,1,2017-12-20 03:04:00,2017-12-20 03:04:00
237,2000427,2017-12-20,images/investasi/image-2.png,1,238,1,1,1,2017-12-20 03:04:00,2017-12-20 03:04:00
238,500437,2017-12-20,images/investasi/image-2.png,1,239,1,1,1,2017-12-20 03:04:00,2017-12-20 03:04:00
239,5000000,2017-12-20,images/investasi/image-2.png,1,240,1,1,1,2017-12-20 03:04:00,2017-12-20 03:04:00
240,500000,2017-12-20,images/investasi/image-2.png,1,241,1,1,1,2017-12-20 03:04:00,2017-12-20 03:04:00
241,500000,2017-12-20,images/investasi/image-2.png,1,242,1,1,1,2017-12-20 03:04:00,2017-12-20 03:04:00
242,1000000,2017-12-20,images/investasi/image-2.png,1,243,1,1,1,2017-12-20 03:04:00,2017-12-20 03:04:00
243,500000,2017-12-20,images/investasi/image-2.png,1,244,1,1,1,2017-12-20 03:04:00,2017-12-20 03:04:00
244,2000302,2017-12-20,images/investasi/image-2.png,1,245,1,1,1,2017-12-20 03:04:00,2017-12-20 03:04:00
245,500399,2017-12-20,images/investasi/image-2.png,1,246,1,1,1,2017-12-20 03:04:00,2017-12-20 03:04:00
246,1050000,2017-12-20,images/investasi/image-2.png,1,247,1,1,1,2017-12-20 03:04:00,2017-12-20 03:04:00
247,500000,2017-12-20,images/investasi/image-2.png,1,248,1,1,1,2017-12-20 03:04:00,2017-12-20 03:04:00
248,500000,2017-12-20,images/investasi/image-2.png,1,249,1,1,1,2017-12-20 03:04:00,2017-12-20 03:04:00
249,1000443,2017-12-20,images/investasi/image-2.png,1,250,1,1,1,2017-12-20 03:04:00,2017-12-20 03:04:00
250,500000,2017-12-20,images/investasi/image-2.png,1,251,1,1,1,2017-12-20 03:04:00,2017-12-20 03:04:00
251,1000438,2017-12-20,images/investasi/image-2.png,1,252,1,1,1,2017-12-20 03:04:00,2017-12-20 03:04:00
252,1500139,2017-12-20,images/investasi/image-2.png,1,253,1,1,1,2017-12-20 03:04:00,2017-12-20 03:04:00
253,1000000,2017-12-20,images/investasi/image-2.png,1,254,1,1,1,2017-12-20 03:04:00,2017-12-20 03:04:00
254,17000394,2017-12-20,images/investasi/image-2.png,1,255,1,1,1,2017-12-20 03:04:00,2017-12-20 03:04:00
255,500000,2017-12-20,images/investasi/image-2.png,1,256,1,1,1,2017-12-20 03:04:00,2017-12-20 03:04:00
256,500404,2017-12-20,images/investasi/image-2.png,1,257,1,1,1,2017-12-20 03:04:00,2017-12-20 03:04:00
257,2000445,2017-12-20,images/investasi/image-2.png,1,258,1,1,1,2017-12-20 03:04:00,2017-12-20 03:04:00
258,500000,2017-12-20,images/investasi/image-2.png,1,259,1,1,1,2017-12-20 03:04:00,2017-12-20 03:04:00
259,5000226,2017-12-20,images/investasi/image-2.png,1,260,1,1,1,2017-12-20 03:04:00,2017-12-20 03:04:00
260,1000000,2017-12-20,images/investasi/image-2.png,1,261,1,1,1,2017-12-20 03:04:00,2017-12-20 03:04:00
261,5000000,2017-12-20,images/investasi/image-2.png,1,262,1,1,1,2017-12-20 03:04:00,2017-12-20 03:04:00
262,500000,2017-12-20,images/investasi/image-2.png,1,263,1,1,1,2017-12-20 03:04:00,2017-12-20 03:04:00
263,500444,2017-12-20,images/investasi/image-2.png,1,264,1,1,1,2017-12-20 03:04:00,2017-12-20 03:04:00
264,2000364,2017-12-20,images/investasi/image-2.png,1,265,1,1,1,2017-12-20 03:04:00,2017-12-20 03:04:00
265,500241,2017-12-20,images/investasi/image-2.png,1,266,1,1,1,2017-12-20 03:04:00,2017-12-20 03:04:00
266,1000456,2017-12-20,images/investasi/image-2.png,1,267,1,1,1,2017-12-20 03:04:00,2017-12-20 03:04:00
267,2000449,2017-12-20,images/investasi/image-2.png,1,268,1,1,1,2017-12-20 03:04:00,2017-12-20 03:04:00
268,250000,2017-12-20,images/investasi/image-2.png,1,269,1,1,1,2017-12-20 03:04:00,2017-12-20 03:04:00
269,1000451,2017-12-20,images/investasi/image-2.png,1,270,1,1,1,2017-12-20 03:04:00,2017-12-20 03:04:00
270,1000457,2017-12-20,images/investasi/image-2.png,1,271,1,1,1,2017-12-20 03:04:00,2017-12-20 03:04:00
271,2000000,2017-12-20,images/investasi/image-2.png,1,272,1,1,1,2017-12-20 03:04:00,2017-12-20 03:04:00
272,1000000,2017-12-20,images/investasi/image-2.png,1,273,1,1,1,2017-12-20 03:04:00,2017-12-20 03:04:00
273,1000246,2017-12-20,images/investasi/image-2.png,1,274,1,1,1,2017-12-20 03:04:00,2017-12-20 03:04:00
274,500000,2017-12-20,images/investasi/image-2.png,1,276,1,1,1,2017-12-20 03:04:00,2017-12-20 03:04:00
275,1000458,2017-12-20,images/investasi/image-2.png,1,277,1,1,1,2017-12-20 03:04:00,2017-12-20 03:04:00
276,2500910,2017-12-20,images/investasi/image-2.png,1,278,1,1,1,2017-12-20 03:04:00,2017-12-20 03:04:00
277,500464,2017-12-20,images/investasi/image-2.png,1,279,1,1,1,2017-12-20 03:04:00,2017-12-20 03:04:00
278,500000,2017-12-20,images/investasi/image-2.png,1,280,1,1,1,2017-12-20 03:04:00,2017-12-20 03:04:00
279,1000468,2017-12-20,images/investasi/image-2.png,1,281,1,1,1,2017-12-20 03:04:00,2017-12-20 03:04:00
280,1500454,2017-12-20,images/investasi/image-2.png,1,282,1,1,1,2017-12-20 03:04:00,2017-12-20 03:04:00
281,500465,2017-12-20,images/investasi/image-2.png,1,284,1,1,1,2017-12-20 03:04:00,2017-12-20 03:04:00
282,5000000,2017-12-20,images/investasi/image-2.png,1,285,1,1,1,2017-12-20 03:04:00,2017-12-20 03:04:00
283,500474,2017-12-20,images/investasi/image-2.png,1,287,1,1,1,2017-12-20 03:04:00,2017-12-20 03:04:00
284,5000085,2017-12-20,images/investasi/image-2.png,1,288,1,1,1,2017-12-20 03:04:00,2017-12-20 03:04:00
285,500284,2017-12-20,images/investasi/image-2.png,1,289,1,1,1,2017-12-20 03:04:00,2017-12-20 03:04:00
286,500000,2017-12-20,images/investasi/image-2.png,1,290,1,1,1,2017-12-20 03:04:00,2017-12-20 03:04:00
287,1000478,2017-12-20,images/investasi/image-2.png,1,291,1,1,1,2017-12-20 03:04:00,2017-12-20 03:04:00
288,1000472,2017-12-20,images/investasi/image-2.png,1,292,1,1,1,2017-12-20 03:04:00,2017-12-20 03:04:00
289,1500479,2017-12-20,images/investasi/image-2.png,1,293,1,1,1,2017-12-20 03:04:00,2017-12-20 03:04:00
290,10000480,2017-12-20,images/investasi/image-2.png,1,294,1,1,1,2017-12-20 03:04:00,2017-12-20 03:04:00
291,500469,2017-12-20,images/investasi/image-2.png,1,295,1,1,1,2017-12-20 03:04:00,2017-12-20 03:04:00
292,1000482,2017-12-20,images/investasi/image-2.png,1,296,1,1,1,2017-12-20 03:04:00,2017-12-20 03:04:00
293,2000481,2017-12-20,images/investasi/image-2.png,1,297,1,1,1,2017-12-20 03:04:00,2017-12-20 03:04:00
294,500000,2017-12-20,images/investasi/image-2.png,1,298,1,1,1,2017-12-20 03:04:00,2017-12-20 03:04:00
295,500000,2017-12-20,images/investasi/image-2.png,1,299,1,1,1,2017-12-20 03:04:00,2017-12-20 03:04:00
296,550000,2017-12-20,images/investasi/image-2.png,1,300,1,1,1,2017-12-20 03:04:00,2017-12-20 03:04:00
297,500000,2017-12-20,images/investasi/image-2.png,1,301,1,1,1,2017-12-20 03:04:00,2017-12-20 03:04:00
298,500483,2017-12-20,images/investasi/image-2.png,1,302,1,1,1,2017-12-20 03:04:00,2017-12-20 03:04:00
299,1000488,2017-12-20,images/investasi/image-2.png,1,303,1,1,1,2017-12-20 03:04:00,2017-12-20 03:04:00
300,500487,2017-12-20,images/investasi/image-2.png,1,304,1,1,1,2017-12-20 03:04:00,2017-12-20 03:04:00
301,500490,2017-12-20,images/investasi/image-2.png,1,305,1,1,1,2017-12-20 03:04:00,2017-12-20 03:04:00
